{
"simple_finder_pipeline":[
        {
            "caffe_model_loader":{
                "model_prototxt_file": "/home/suraj/Repositories/Internal/Models/Age_Classification_Caffe/deploy_age.prototxt",
                "caffe_model_file": "/home/suraj/Repositories/Internal/Models/Age_Classification_Caffe/age_net.caffemodel",
                "emotions_class_file": "/home/suraj/Repositories/Internal/Models/Age_Classification_Caffe/age.names"
            }

        },

        {
            "facial_analysis":{
            "face_extraction_cascade_file": "/home/suraj/Repositories/Internal/Models/Sentiment_Analysis_Caffe/haarcascade_frontalface_default.xml",
            "mean_values": [78.4263377603, 87.7689143744, 114.895847746]


            }

        },
        {
            "draw_labelled_rectangles": {
                "line_thickness": 2
            }
        }


    ]



}
