{
    "simple_finder_pipeline": [
        {
            "box_filter_blur": {
                "ksize.width": 3,
                "ksize.height": 3
            }
        },
        {
            "convert_color_to_gray": {}
        },
        {
            "canny_edges": {
                "kernel_size": 3.0,
                "min_threshold": 75.0,
                "max_threshold" : 150.0
            }
        }
    ]
}
