{
    "simple_finder_pipeline": [
        {
            "fast_feature_detection": {
                "threshold":10,
                "type":2,
                "nonmaxSuppression":1
            }
        },
        {
            "brief_descriptor_extraction": {
                "bytes": 32,
                "use_orientation": 0
            }
        },
        {
            "draw_keypoints":{
                "matcher_flag":0
            }
        }
    ]
}
