{
    "simple_finder_pipeline": [
        {
            "orb_feature_detection": {
                "nfeatures": 500,
                "nlevels": 8,
                "edgeThreshold": 31,
                "firstLevel": 0,
                "wta_k": 2,
                "scoreType": 0,
                "patchSize": 31,
                "fastThreshold": 20,
                "scaleFactor": 1.2
            }
        },
        {
            "draw_keypoints":{
                "matcher_flag":0
            }
        }
    ]
}
